…
<img src="p8105_hw3_st3117_files/figure-markdown_github/Problem 3_3-1.png" width="90%" />

``` r
ny_noaa %>% 
  filter(month == "January" | month == "July") %>% 
  group_by(id, year, month) %>% 
  summarize(mean_tmax = mean(tmax_c, na.rm = TRUE)) %>% 
  arrange(mean_tmax)
```

    ## # A tibble: 14,111 x 4
    ## # Groups:   id, year [7,409]
    ##    id          year  month   mean_tmax
    ##    <chr>       <chr> <chr>       <dbl>
    ##  1 USC00301723 1982  January    -13.4 
    ##  2 USC00305925 2005  January    -12.2 
    ##  3 USC00306957 2004  January    -10.8 
    ##  4 USC00304996 1994  January    -10.6 
    ##  5 USW00094725 2004  January    -10.4 
    ##  6 USW00094740 2004  January    -10.4 
    ##  7 USW00094725 1994  January    -10.2 
    ##  8 USC00304996 2004  January     -9.98
    ##  9 USC00306659 1994  January     -9.90
    ## 10 USC00301401 1994  January     -9.7 
    ## # ... with 14,101 more rows
…
